module github.com/ryantokmanmokmtm/movie-server

go 1.18

require (
	github.com/go-playground/locales v0.14.0
	github.com/go-playground/universal-translator v0.18.0
	github.com/go-playground/validator/v10 v10.11.0
	github.com/golang-jwt/jwt/v4 v4.4.2
	github.com/pkg/errors v0.9.1
	github.com/zeromicro/go-zero v1.4.0
	golang.org/x/crypto v0.0.0-20220622213112-05595931fe9d
	gorm.io/driver/mysql v1.3.5
	gorm.io/gorm v1.23.8
)

require (
	github.com/beorn7/perks v1.0.1 // indirect
	github.com/cespare/xxhash/v2 v2.1.2 // indirect
	github.com/dgryski/go-rendezvous v0.0.0-20200823014737-9f7001d12a5f // indirect
	github.com/fatih/color v1.13.0 // indirect
	github.com/fsnotify/fsnotify v1.5.1 // indirect
	github.com/go-logr/logr v1.2.3 // indirect
	github.com/go-logr/stdr v1.2.2 // indirect
	github.com/go-redis/redis/v8 v8.11.5 // indirect
	github.com/go-sql-driver/mysql v1.6.0 // indirect
	github.com/golang/protobuf v1.5.2 // indirect
	github.com/google/uuid v1.3.0 // indirect
	github.com/gorilla/websocket v1.5.0 // indirect
	github.com/jinzhu/inflection v1.0.0 // indirect
	github.com/jinzhu/now v1.1.5 // indirect
	github.com/leodido/go-urn v1.2.1 // indirect
	github.com/mattn/go-colorable v0.1.12 // indirect
	github.com/mattn/go-isatty v0.0.14 // indirect
	github.com/matttproud/golang_protobuf_extensions v1.0.2-0.20181231171920-c182affec369 // indirect
	github.com/openzipkin/zipkin-go v0.4.0 // indirect
	github.com/pelletier/go-toml/v2 v2.0.2 // indirect
	github.com/prometheus/client_golang v1.12.2 // indirect
	github.com/prometheus/client_model v0.2.0 // indirect
	github.com/prometheus/common v0.35.0 // indirect
	github.com/prometheus/procfs v0.7.3 // indirect
	github.com/spaolacci/murmur3 v1.1.0 // indirect
	go.opentelemetry.io/otel v1.9.0 // indirect
	go.opentelemetry.io/otel/exporters/jaeger v1.9.0 // indirect
	go.opentelemetry.io/otel/exporters/zipkin v1.9.0 // indirect
	go.opentelemetry.io/otel/sdk v1.9.0 // indirect
	go.opentelemetry.io/otel/trace v1.9.0 // indirect
	go.uber.org/automaxprocs v1.5.1 // indirect
	golang.org/x/sys v0.0.0-20220627191245-f75cf1eec38b // indirect
	golang.org/x/text v0.3.7 // indirect
	google.golang.org/genproto v0.0.0-20220822174746-9e6da59bd2fc // indirect
	google.golang.org/grpc v1.48.0 // indirect
	google.golang.org/protobuf v1.28.1 // indirect
	gopkg.in/yaml.v2 v2.4.0 // indirect
)
